{
  "name": "",
  "css_prefix_text": "",
  "css_use_suffix": false,
  "hinting": true,
  "units_per_em": 1000,
  "ascent": 850,
  "glyphs": [
    {
      "uid": "128823c74a472a26fadff045a9cd01fb",
      "css": "main",
      "code": 59392,
      "src": "custom_icons",
      "selected": true,
      "svg": {
        "path": "M924.8 468.7C915.4 468.7 907.8 476.2 907.8 485.3L907.8 800.2 258.9 800.2 258.9 485.3C258.9 476.2 251.2 468.7 241.8 468.7 232.4 468.7 224.7 476.2 224.7 485.3L224.7 816.8C224.7 825.9 232.4 833.3 241.8 833.3L924.8 833.3C934.3 833.3 941.9 825.9 941.9 816.8L941.9 485.3C941.9 476.2 934.3 468.7 924.8 468.7ZM595.4 4.9C592.1 1.7 587.9 0 583.3 0 578.8 0 574.4 1.7 571.3 4.9L88.3 473.5C85.1 476.7 83.3 480.8 83.3 485.2 83.3 489.6 85.1 493.9 88.3 496.9 94.8 503.2 106 503.2 112.5 496.9L583.3 40 1054.2 496.9C1060.9 503.4 1071.7 503.4 1078.4 496.9 1085 490.5 1085 480 1078.4 473.5L595.4 4.9Z",
        "width": 1168
      },
      "search": [
        "main"
      ]
    }
  ]
}